#Figure 2C:Relative abundances of bacterial families in stool samples.
Bacteroides S24-7	Lachnospiraceae	Prevotellaceae	Rikenellaceae	Ruminococcaceae	Bacteroidaceae	Desulfovibrionaceae	Verrucomicrobiaceae	Lactobacillaceae	Porphyromonadaceae	Alcaligenaceae	Erysipelotrichaceae
CON.day.1	59	5.179487179	8.564102564	3.692307692	2.41025641	7.153846154	0.025641026	3.615384615	1.974358974	1.692307692	4.564102564	0.435897436
CON.day.1.1	49.48717949	23.15384615	5.435897436	4.307692308	5.358974359	2.743589744	2.307692308	0.153846154	1.820512821	2.128205128	1.794871795	0.025641026
CON.day.1.2	44.17948718	31.71794872	10.43589744	3.051282051	1.948717949	2.41025641	0.307692308	0.333333333	1.153846154	1.615384615	1.820512821	0.051282051
CON.day.4	57.69230769	1.666666667	15.20512821	1.974358974	0.538461538	4.512820513	0.051282051	11.30769231	1.282051282	0.58974359	3.333333333	1.435897436
CON.day.4.1	55.56410256	15.74358974	11.20512821	2.205128205	1.205128205	1.948717949	0.153846154	6.051282051	1.076923077	1.230769231	2.307692308	0.615384615
CON.day.4.2	52.38461538	3.948717949	16.79487179	6.974358974	1.820512821	3.307692308	0.179487179	5.923076923	2.641025641	2	1.923076923	0.538461538
CON.day.7	47.79487179	2.871794872	13.41025641	8.128205128	2.076923077	1.384615385	0.051282051	12.92307692	0.717948718	0.948717949	2.179487179	5.512820513
CON.day.7.1	49.17948718	6.487179487	14.05128205	6.41025641	8.282051282	2.974358974	0.307692308	5.615384615	0.333333333	1.41025641	2.025641026	1.435897436
CON.day.7.2	60.35897436	4.58974359	7.923076923	8.153846154	2.282051282	2.820512821	0.153846154	1.179487179	2.820512821	1.41025641	2.461538462	4.435897436
FD.day.1	51.41025641	16.74358974	13.30769231	4.256410256	3.025641026	2.128205128	1.358974359	0.564102564	1.282051282	1.820512821	1.948717949	0.205128205
FD.day.1.1	54.07692308	10.43589744	15.61538462	5.820512821	1.923076923	2.333333333	0.692307692	0.153846154	1.692307692	2.487179487	2.512820513	0.282051282
FD.day.1.2	46.48717949	17.48717949	10.30769231	7.846153846	5.256410256	2.128205128	1.435897436	1.794871795	0.897435897	2.666666667	0.717948718	0.102564103
FD.day.4	26.64102564	13.20512821	16.97435897	6.282051282	10.61538462	9.461538462	3.974358974	0.333333333	2.923076923	1.230769231	1.538461538	0.615384615
FD.day.4.1	23.15384615	12.97435897	0.102564103	0.897435897	5.153846154	5.923076923	13.23076923	0	0.333333333	14.15384615	6.717948718	0.743589744
FD.day.4.2	23.41025641	11.12820513	0.512820513	5	6.948717949	7.487179487	2.769230769	0.256410256	39.41025641	0.615384615	0.461538462	0.256410256
FD.day.7	29.35897436	13.56410256	4.051282051	5.974358974	18.33333333	8.025641026	5.897435897	0.025641026	0.153846154	2.948717949	0.512820513	1.076923077
FD.day.7.1	32.53846154	13.76923077	0.358974359	4.435897436	13.43589744	18.58974359	1.58974359	0.820512821	0.051282051	4.743589744	1.179487179	4.743589744
FD.day.7.2	23.76923077	11.66666667	16.33333333	13.1025641	17.35897436	3.666666667	9.205128205	0.358974359	0.128205128	2.692307692	0.153846154	0.717948718
PFD.day.1	53.66666667	19.61538462	7.435897436	4.102564103	5.102564103	3.487179487	1.538461538	0	1.358974359	1.256410256	1.230769231	0.051282051
PFD.day.1.1	67.05128205	6.871794872	10.41025641	1.692307692	3.230769231	1.717948718	0.717948718	0.051282051	4.102564103	0.641025641	2.205128205	0.051282051
PFD.day.1.2	56.92307692	7.846153846	18.23076923	2.743589744	1.897435897	5.179487179	0.538461538	0	2.333333333	0.974358974	2.051282051	0.128205128
PFD.day.4	12.53846154	6.846153846	1.615384615	13.82051282	6.025641026	2	17.79487179	38.35897436	0.025641026	0.307692308	0.076923077	0.051282051
PFD.day.4.1	20.92307692	21.71794872	4.179487179	17.41025641	8.615384615	3.256410256	21.76923077	0.025641026	0.076923077	0.641025641	0.179487179	0.461538462
PFD.day.7	12	14.66666667	2.076923077	1.230769231	1.256410256	32.97435897	13.79487179	0.205128205	0.025641026	6.179487179	5.564102564	6.615384615
PFD.day.7.1	17.79487179	14.8974359	4.333333333	15.8974359	8.41025641	11.84615385	16.07692308	3.076923077	0.076923077	2.923076923	0.333333333	0.820512821
PFD.day.7.2	22.41025641	15	2.307692308	6.205128205	9.205128205	0.58974359	13.53846154	10.15384615	0	1.820512821	0.58974359	11.64102564
